<?xml version="1.0" encoding="utf-8"?>
<!-- Generator: Adobe Illustrator 24.0.0, SVG Export Plug-In . SVG Version: 6.00 Build 0)  -->
<svg version="1.1" xmlns="http://www.w3.org/2000/svg" xmlns:xlink="http://www.w3.org/1999/xlink" x="0px" y="0px"
	 viewBox="0 0 170.1 170.1" style="enable-background:new 0 0 170.1 170.1;" xml:space="preserve">
<style type="text/css">
	.st0{display:none;}
	.st1{display:inline;stroke:#FFFFFF;stroke-miterlimit:10;}
	.st2{display:inline;}
	.st3{fill:#FFFFFB;}
	.st4{stroke:#FFFFFF;stroke-miterlimit:10;}
	.st5{fill:none;stroke:#000000;stroke-width:40;stroke-miterlimit:10;}
	.st6{fill:none;stroke:#FAFAFA;stroke-width:3;stroke-miterlimit:10;}
	.st7{fill:none;stroke:#FAFAFA;stroke-width:3;stroke-miterlimit:10;stroke-dasharray:11.9585,11.9585;}
	.st8{display:inline;fill:none;stroke:#000000;stroke-width:5;stroke-miterlimit:10;}
	.st9{display:inline;fill:none;stroke:#000000;stroke-width:3;stroke-miterlimit:10;}
</style>
<g id="Слой_1" class="st0">
	<circle class="st1" cx="90.8" cy="87" r="43.6"/>
	<g class="st2">
		<path class="st3" d="M89.5,84.5c0,7.3-2.7,11.3-7.5,11.3c-4.2,0-7-3.9-7.1-11c0-7.2,3.1-11.2,7.5-11.2
			C86.9,73.6,89.5,77.6,89.5,84.5z M77.8,84.8c0,5.6,1.7,8.8,4.4,8.8c3,0,4.4-3.5,4.4-9c0-5.3-1.4-8.8-4.4-8.8
			C79.7,75.9,77.8,79,77.8,84.8z"/>
		<path class="st3" d="M98.5,76.7L98.5,76.7l-3.8,2l-0.6-2.2l4.7-2.5h2.5v21.5h-2.8V76.7z"/>
	</g>
</g>
<g id="Слой_1_копия_2">
	<circle class="st4" cx="84" cy="85" r="38.7"/>
	<g>
		<path class="st3" d="M82.9,82.8c0,6.5-2.4,10.1-6.6,10.1c-3.7,0-6.3-3.5-6.3-9.8c0-6.4,2.8-9.9,6.6-9.9
			C80.6,73.1,82.9,76.7,82.9,82.8z M72.5,83.1c0,5,1.5,7.8,3.9,7.8c2.6,0,3.9-3.1,3.9-8c0-4.7-1.2-7.8-3.9-7.8
			C74.2,75.1,72.5,77.9,72.5,83.1z"/>
		<path class="st3" d="M90.9,75.8L90.9,75.8l-3.4,1.8l-0.5-2l4.2-2.2h2.2v19.1h-2.5V75.8z"/>
	</g>
	<path class="st5" d="M21.7,170.1V85c0-34.4,27.9-62.3,62.3-62.3s62.3,27.9,62.3,62.3v36.5c0,0,5.7,29.6,25.5,28.6"/>
	<g>
		<g>
			<line class="st6" x1="21.7" y1="170.1" x2="21.7" y2="164.1"/>
			<path class="st7" d="M21.7,152.1V85c0-34.4,27.9-62.3,62.3-62.3s62.3,27.9,62.3,62.3v36.5c0,0,3.4,17.8,14.2,25.3"/>
			<path class="st6" d="M165.8,149.4c1.8,0.5,3.8,0.8,5.9,0.7"/>
		</g>
	</g>
</g>
<g id="Слой_1__x28_копия_x29_" class="st0">
	<circle class="st1" cx="90.8" cy="87" r="43.6"/>
	<g class="st2">
		<path class="st3" d="M89.5,84.5c0,7.3-2.7,11.3-7.5,11.3c-4.2,0-7-3.9-7.1-11c0-7.2,3.1-11.2,7.5-11.2
			C86.9,73.6,89.5,77.6,89.5,84.5z M77.8,84.8c0,5.6,1.7,8.8,4.4,8.8c3,0,4.4-3.5,4.4-9c0-5.3-1.4-8.8-4.4-8.8
			C79.7,75.9,77.8,79,77.8,84.8z"/>
		<path class="st3" d="M98.5,76.7L98.5,76.7l-3.8,2l-0.6-2.2l4.7-2.5h2.5v21.5h-2.8V76.7z"/>
	</g>
	<path class="st8" d="M127.2,55.7c7.2,8.4,11.6,19.3,11.6,31.3c0,13.3-5.4,25.3-14.1,33.9"/>
	<line class="st9" x1="138.8" y1="85" x2="170.1" y2="85"/>
</g>
</svg>
