<?xml version="1.0" encoding="utf-8"?>
<!-- Generator: Adobe Illustrator 24.0.0, SVG Export Plug-In . SVG Version: 6.00 Build 0)  -->
<svg version="1.1" id="Слой_1" xmlns="http://www.w3.org/2000/svg" xmlns:xlink="http://www.w3.org/1999/xlink" x="0px" y="0px"
	 viewBox="0 0 362.8 93.5" style="enable-background:new 0 0 362.8 93.5;" xml:space="preserve">
<style type="text/css">
	.st0{fill-rule:evenodd;clip-rule:evenodd;fill:#020203;}
</style>
<path class="st0" d="M14.6,44.5c0.4-0.2,0.9-0.4,1.3-0.5c1.5-0.3,1.6-0.3,0.4,0.2C15.2,44.5,16,44.2,14.6,44.5z M17.3,44.2
	c-0.5,0.1-1.1,0.2-1.6,0.3c0.2,0.1-1.1,0.5-1.9,0.8C15,45,16.2,44.6,17.3,44.2z M17.5,46.4c0-0.1-0.6,0,0.7-0.5
	c-2,0.6-1.2,0.3-2.4,0.5c0.5-0.2,0.9-0.3,1.4-0.5c-1,0.2-1.1,0.1-0.3-0.2c-0.9,0.2-1.9,0.4-2.7,0.6c-0.1,0.1,0.6,0-0.3,0.2
	c-0.8,0.3,1.3-0.2,1.7-0.3c-1.3,0.5-1.7,0.7-2.2,1C16.4,46.3,16.4,46.5,17.5,46.4z M41.7,35.6c1.1-0.3,1.7-0.7,0.1-0.3l-1.3,0.5
	C41,35.7,42.1,35.4,41.7,35.6z M9.4,50.7c-1,0.4-0.5,0.4,1,0C10.2,50.7,10.4,50.5,9.4,50.7z M126.9,93.2c-0.5,0.5,2.8-0.4,2.4,0.1
	C131.5,92.3,128.3,93,126.9,93.2z M131.4,92.9c0.1-0.2-0.3-0.2-1.1,0C129.5,93.4,130,93.4,131.4,92.9z M41.4,34
	c-3.1,0.9-1.2,0.1-2.6,0.4c-0.7,0.4-0.2,0.4,0.6,0.4C39.9,34.4,40.8,34.3,41.4,34z M11.7,51.8c-3.1,0.9,0-0.5-2.2,0
	c-0.4,0.6,0.9,0.6,0.6,1.1c1.4-0.3,0.3-0.2,1.3-0.5C10.5,52.5,10.3,52.4,11.7,51.8z M16.4,45.7c0-0.1,0.5-0.4-1.1,0
	C14.5,46,16.3,45.6,16.4,45.7z M123.3,93.4c0.3-0.1,0.6-0.2,1-0.3c0.2-0.1,0.4-0.2,0.6-0.2c-1.9,0.3-1.7-0.2-3.8,0.1
	c0,0.2,0.8,0.2,0.5,0.5C123.6,92.7,123.1,93.2,123.3,93.4z M253.6,86.5c0.2,0.1,0,0.3,0.5,0.3C255.3,86.5,254.1,86.5,253.6,86.5z
	 M253.2,87.4c-0.2,0.2,0.3,0.4,1,0.2C253.9,87.5,253.8,87.2,253.2,87.4z M266.3,84.8c0.4,0,0.4,0.3,1,0.2
	C267.5,84.7,266.8,84.7,266.3,84.8z M257.4,88.9c0.6,0.1,1.1,0.4,2,0.2C258.9,88.8,258.3,88.8,257.4,88.9z M312.4,71.8
	c0.2,0.4,2.4,0.3,2.5,0.8C315.5,72,313.1,71.9,312.4,71.8z M296.3,81.1c-2,0-2.1-1-4.3-0.8c-0.3,0.3,0.7,0.1,1.1,0.2
	c0,0.1,0,0.3,0.2,0.4C294.5,80.7,295.3,81.6,296.3,81.1z M299.3,84.7l0.4,0.1c0.4-0.1,0.7-0.3,0.8-0.4
	C300.4,84.4,299.9,84.5,299.3,84.7z M316.5,84.2c1.1,0.4,0.4-0.1-0.3-0.3c-0.1-0.1-0.5,0-0.8,0.1c-0.1-0.6-1.8-1-3.5-0.8
	C313.9,83.5,314.3,84.1,316.5,84.2z M301.8,87.6c-0.3-0.1-0.7-0.2-1.2-0.1C300.4,87.6,301.1,87.8,301.8,87.6z M332.5,76.9
	c-0.2,0.2,0.7,0.3,1.2,0.2C333.3,77.1,333.2,76.8,332.5,76.9z M307.5,86.4c-0.8,0.1-1.3-0.2-2.2-0.1
	C305.9,86.5,306.9,86.9,307.5,86.4z M304.6,87.9c-0.6-0.1-1.1-0.4-2-0.2C303.2,87.7,303.7,88,304.6,87.9z M341,75.2
	c-0.5,0-0.9-0.2-1.7,0.1C339.8,75.3,340.2,75.5,341,75.2z M334.1,77.5c0.7,0.3,1.3,0.5,2.7,0.6C336.2,77.8,335.1,77.3,334.1,77.5z
	 M306.9,88.5c-0.4-0.2-0.4-0.7-2.1-0.5C306.1,87.9,305.7,88.5,306.9,88.5z M319,84.6c-0.5,0-1-0.1-1.6,0
	C317.8,84.6,318,84.9,319,84.6z M317.1,85.9c-0.3-0.2-0.3-0.3-1.1-0.2C316.4,85.7,316.4,86,317.1,85.9z M314.8,87.1
	c-0.4,0.1-0.8,0.3-0.5,0.3c1.5-0.4,0.5-0.6-0.3-0.4C314.2,87.1,314.7,87,314.8,87.1z M334.6,81.3C333.5,80.7,333.1,81.5,334.6,81.3
	L334.6,81.3z M346.3,79.1c-0.4-0.2-0.7-0.4-1.7-0.4C344.6,78.8,345.6,79.1,346.3,79.1z M346.4,78.3l0.6,0.2
	C347.8,78.3,346.9,78,346.4,78.3z M361.3,74.3c-0.1-0.1-0.6-0.2-1.3-0.1C359.9,74.4,360.6,74.5,361.3,74.3z M362.2,75.6
	C363.4,76,364.2,75.5,362.2,75.6L362.2,75.6z M338.6,68.2c-0.1-0.3-1.6-0.2-1-0.6c-0.6,0.1-1,0.1-1.5,0.1
	C337.7,67.7,337,68.4,338.6,68.2z M329.3,78.9c-0.5,0,0.1-0.2-0.3-0.3c-1.3,0.3,0,0.3-0.8,0.6c-1.2,0.3-1.3-0.3-2.4,0
	c1.5,0.2,3.4,1.4,6,1.3c-2-0.2-0.7-1.1-2.6-0.9c0.3-0.1,0.6-0.2,0.8-0.2c-0.5-0.1-1.2-0.1-1.6-0.4C328.8,79.1,328.9,79.1,329.3,78.9
	z M307.9,86.9c-1.2-0.3,0,0.3,0.8,0.1c0.1-0.1,0-0.4-0.5-0.2C308.2,86.8,308.1,86.9,307.9,86.9z M314.6,87.7c-0.1,0-0.2,0-0.3,0
	C314.4,87.7,314.7,87.8,314.6,87.7z M316,88.6c-0.1,0.1,0.2,0.2,0.1,0.3c2.1-0.3,2.3,0.8,3.9,0.8c0.4-0.5-1-0.7-1.8-0.9l1-0.3
	c-2.7,0.2-3.8-0.5-4.8-0.8c-3.2,0.4-2.1-1.3-5.5-0.7C311.9,87.3,312.5,88.5,316,88.6z M314.3,87.7C314.3,87.7,314.3,87.7,314.3,87.7
	C314.3,87.7,314.3,87.7,314.3,87.7C314.3,87.7,314.3,87.7,314.3,87.7z M350.1,77.6c-0.6,0.1-1,0-1.6,0.1
	C348.1,78,350.2,77.6,350.1,77.6z M130.3,0.5c0.9,0.1,1.5,0.1,2.5,0.3c1.4,0.3,3.7,0.2,5.2,0.4c1.7,0.2,1.8,0.9,3,1.3
	c0.5,0.2,2,0.1,2.4,0.2c0,0,0,0,0.1,0c1.4,0,2.6,0.1,4,0.2c1.3,0.1,4.7,0.1,4.8,0.4c3-0.1,4.5,0.3,5.6,0.6c2.4-0.1,3.2,0.2,4.4,0.4
	c-0.3,0-0.6,0.1-0.9,0.2c1,0,1,0.3,2.3,0l-1.1,0.4c1.8,0.2,4.1,0.2,7.8-0.1c-0.1,0.2,0.5,0.3,2.1,0c-1.4,0.8-0.5,1.3,1.5,1.3
	c0.3-0.1-0.7,0-0.2-0.1c1.1-0.2,1.1-0.1,2.3-0.3c0.2,0.1-0.1,0.2,0.9,0.1c-0.7,0.2-0.9,0.4-0.5,0.4c0.6-0.2,1.4-0.3,2.2-0.3
	c-1.1,0.9,0.1,1.3,3.3,1.3c-1.3,0.5,1.4,0,1.4,0.2c2.2-0.6,2,0.2,4.3-0.6c-1.7,1.2,4.9,0.7,5,1.3c1.6-0.2,3.2-0.1,3.3,0.1
	c2.7-0.2,3.5,0.1,4.2,0.5c2.1-0.1,2.4,0,4.2,0c-0.1,0.1-1.3,0.4-0.7,0.4c1.7-0.5,2.3-0.2,2.9-0.1c-0.4,0.1-0.8,0.1-1.1,0.2
	c2.2-0.2,3.9,0,3.5,0.5c-0.4,0-3.2,0.2-1.2-0.3c-0.6,0-2,0.2-2.8,0.2c-0.3,0.1-0.1,0.1-0.3,0.3c-0.9,0.1-0.5-0.3-1.7,0
	c0.7,0,0.9,0.3,2.8,0c-1.3,0.9,3.6,0.2,3.1,1c1-0.2,0.7,0.1,1.6-0.2c-0.7,0.3,0,0.1-0.1,0.2c-0.3,0-0.6,0.1-0.8,0.2
	c1.5-0.2,0.9,0.2,2.3,0.1c0.1-0.1-0.4-0.2,0.6-0.3c-0.8,0.5,0.6,0.1,0.5,0.2c-0.9,0.1-0.2,0.1-0.9,0.4c1.1,0,1.1,0.1,2.3,0
	c0-0.2,1.5-0.5,0.6-0.3l-0.7,0.4c1.4,0.1,2.4,0.2,4,0.2c-0.7,0.1-0.6-0.2-1.4,0.2c0.3,0.1,1.2,0.1,1.9,0.1c-0.3,0-0.6,0.1-0.7,0.2
	c1-0.2,0.5,0.1,1,0.1c0.2-0.1,0.3-0.2,0.5-0.2c-0.5,0.4,1-0.1,1,0.1c-0.4,0.1-0.7,0.2-0.9,0.3c0.7,0.3,1.1,0.6,2.8,0.5
	c-0.2,0.2-0.9,0.5,0.6,0.2c-0.2,0.1-0.6,0.2-0.8,0.3c1-0.2,1.9,0,1.4,0.4l0.9-0.1c0.4,1.3,5.1,1.5,6.5,2.6c1.2,0,1.4,0.2,1.8,0.4
	l1-0.1c-0.3,0.3,0.6,0.4,1.3,0.3c-1.1,0.4,0.3,0.1,0.8,0.1c0.3,0.8,3.5,0.8,4.3,1.4l0.7-0.1c11.2,3.3,24.4,5.8,34.2,9.6
	c0.6-0.2,1-0.1,0.9,0c-0.5,0.1-0.4,0-0.7,0.1c-0.3,0.3,0.8-0.1,1.2,0l-0.5,0.3c2,0.3,2.8,0.7,4.7,1.1c-0.3,0-0.8,0.2-0.5,0.2l1-0.1
	c2,1.1,5.8,1.7,7.8,2.8c1.6,0.3,3.1,0.6,3.4,1.3c1.3-0.1,0.4,0.4,1.8,0.3c-0.5,0.6,2,0.3,1.5,1c2.8,0.2,2.7,1.3,5.4,1.5l-0.5,0.3
	c2.2,0.2,2,1.2,4.2,1.3c-0.9,0.5,1.5,0.2,0.3,0.7l1-0.1c-0.6,0.4,0.5,0.4,0.9,0.6c0.9,0.4,1.2,1.3,2.6,1.1c1.5,1,4.2,1.6,5.3,2.7
	c0.2,0,0.4-0.1,0.6-0.1c0.6,0.7,1,1.4,3.1,1.6l-0.8,0.5c1.3,0,1.2,0.3,1.2,0.5c0.3,0,0.4-0.2,0.7-0.2c0.4,0.1-0.7,0.6,0,0.6
	c1.8,0.3,2.4,0.9,2.8,1.5c-0.2-0.1,0.4-0.2,0.9-0.3c0.1,0.9,1.8,1.4,3,2c-0.2,0.2-0.7,0.2-0.9,0.4c1.4-0.2,0.7,0.1,2,0
	c-1,0.6,0.4,0.4-0.3,0.8c1.5-0.1,1.4,0.7,2.3,0.9c-1.7,0.5,1.4,0.4,0.6,1c0.6,0,0.7-0.2,1.2-0.3c0,0.1-0.8,0.5,0.7,0.3
	c-0.5,0.6,0.4,0.8,1.1,1.1c-0.3,0.3-1.4,0.2-1.6,0.5c1.7,0,2.7,0.1,3.4,0.5c-0.8,0.2-0.6,0-1.4,0.1c-0.2,0.2-0.9,0.2-1.1,0.4
	c1.1-0.1,2.1,0,1.6,0.3c-0.2,0-0.4-0.3-1,0c0.3,0.2,0.5,0.4,1.7,0.4c-0.2,0.2-0.7,0.2-0.9,0.4c0.7,0,0.3,0.3,1.9,0
	c-0.8,0.6,0.9,0.5,1.3,0.8c0.6,0,0.5-0.4,1.3-0.4c0,0.3-1.7,0.5-1.2,0.6c0.6-0.2,2.1-0.4,1.4,0c-0.4,0-0.9,0-1.1,0.2
	c0.2,0.5,0.9,0.8,1.8,1.1c-0.1,0-0.1,0-0.3,0.1c0.1,0.3,0.4,1.1,1.8,0.8c-0.3,0.2,0.1,0.1,0.1,0.2c-0.4,0-0.9,0.1-1,0.2
	c1.2-0.2,0.1,0.2,1.3,0.1c0.1-0.1,0-0.2,0-0.3c1.5-0.1-1.3,0.6,0.2,0.6c-0.7,0.3,0.3,0.2,0,0.4c-0.8,0.1-0.6-0.1-1,0.1
	c0.2,0.4,0.6,0.6,2,0.7c-0.4,0.1-0.7,0.1-1,0.2c0.5,0,0.1,0.2,0.6,0.2c0.4,0,0.7-0.2,1.1-0.2c-0.4,0.3-0.2,0.4,0.1,0.5
	c0.1-0.1,1.2-0.3,0.9-0.1c-1.9,0.3,0.3,0.3-0.3,0.6c-0.4,0.1-1.2,0.1-1.6,0.2c1.4-0.1,0.8,0.2,1.4,0.3c0.7-0.4,1.4,0,1.3,0.1
	c-0.5-0.1-1.4,0-2,0.3c0.3,0,1.5-0.2,1.2,0c-2.2,0.3-0.7,0.9-0.4,1.1c0.2-0.1,0.4-0.2,0.8-0.2c-0.8,0.4,0.2,0.1,0.3,0.2l-0.7,0.4
	c-0.8,0-1.2,0.2-1.7,0.3c0.1-0.3,0.4-0.4-0.8-0.4c1.2-0.5,0-0.2,0.9-0.7c-0.6,0.2-1.5,0.2-1.4,0c0.4,0,0.9,0,1.2-0.1
	c-0.5,0,1-0.3,0.1-0.3c-0.8,0.1-1.4,0.4-2.4,0.4c0.5-0.3,1.8-0.2,2.2-0.5c-1.7,0.1,0.6-0.6-1.3-0.4c-0.5,0.2-0.9,0.5-1.6,0.5
	c0.8-0.3,0.6-0.3,1.8-0.6c-2.2,0.1-1.6-0.5-2.1-0.8c-0.2,0.1-0.4,0.1-0.7,0.1c-0.3,0.2,0.5,0.1,0,0.3c-1.2,0,0.7-0.5,0.3-0.6
	c-0.7,0.1-1.2,0.3-1.3,0.1c1.2,0,0.5-0.2,1.3-0.5c-1.3,0-1.2-1-3.5-0.6c0.1-0.2,0.7-0.2,1-0.4c-0.5-0.2-0.3-0.6-1.4-0.6
	c0.5,0,1-0.1,1.3-0.2c-0.3,0-0.3-0.2-1.3,0c-0.2,0.1-0.4,0.3-0.8,0.3c0.2-0.2-0.6-0.1-0.1-0.3c0.7,0,1.2-0.2,1.5-0.4
	c-2,0.2,0.3-0.9-2.2-0.5c-0.1-0.1,0-0.2,0.5-0.3c-1,0.2-0.5-0.2-1.1,0c-0.1,0.1,0.1,0.1-0.4,0.2c-0.3-0.2,0.3-0.6,0.1-0.8
	c-0.2,0.1-0.6,0.1-0.8,0.2c-0.3,0.2,0,0.1-0.3,0.3c-1.8-0.1-0.2-1.1-2.7-1c0.4-0.3,0.4,0,0.7-0.2c0.2-0.4-0.9-0.5-0.9-0.8
	c-2.2,0.2,0.4-1.1-2.1-0.6c1.2-0.5-1-0.2,0.2-0.7c-1.4,0.2-0.9-0.1-1.3-0.2c1.4-0.4,0.2-0.7-1.5-0.4c0.1-0.2,0.7-0.2,1-0.4
	c-0.7,0.1,0.4-0.4-0.3-0.3c-0.4,0.2-1.5,0.4-1.2,0.1c0.4-0.1,1.1,0,1.3-0.2c0.4-0.3-1.4,0-1.6-0.1c0.7-0.2,0.7-0.2,0.9-0.4
	c-1.3,0.2-1.2-0.1-2.5,0.1c0.1,0.1-0.1,0.2-0.6,0.3c0-0.1,0.2-0.2,0-0.1c-0.4,0.1-0.5,0.3-1,0.4c0.4-0.5-1,0-0.2-0.7
	c0.6-0.1,0.3,0.4,1.2-0.1c0.9-0.2,0.2,0.4,1,0.1c0-0.1-0.7-0.1,0.2-0.5c-1.2,0.2-0.3-0.2-1.3,0c-0.5,0.2,0.2,0.1,0,0.3
	c-0.5,0-0.7,0.2-1.1,0.3c-0.8,0.1-1,0-0.7-0.2c0.4-0.1,0.8-0.1,1.1-0.2c-0.3,0,0-0.1-0.2-0.1c-0.6,0-0.8,0.3-1.4,0.3
	c0.4-0.5-1.8-0.4,0.2-1.3c-0.2,0-0.4-0.2-1.1,0.1c-0.5,0.2,0.7,0.1-0.4,0.4c0.2-0.3-1.7-0.4,0.5-0.9c0.1-0.1-0.1-0.1-0.2-0.1
	c-0.6,0-0.8,0.3-1.4,0.3c-0.8-0.4-1.2-1.2-2.7-1.2c0.1-0.8-1.5-1-2.2-1.6c-0.2,0.1-0.3,0.2-0.5,0.2c1-0.8-1.5-1-1.8-1.5
	c-0.4,0.1-0.6,0.2-1,0.2c0-0.5-1.1-0.6-1.1-1.1c-0.2,0.1-0.4,0.2-0.7,0.2c0.8-0.5,0.7-0.8-0.7-0.5c0.7-0.7-2-0.4-1.3-1.2
	c-0.9,0.3-1-0.1,0-0.3c-0.7,0.3,0.4,0.2,0.9,0c0-0.2,0.6-0.3,1.1-0.6c-0.9-0.1-2.4,0.4-2.9,0.6c-0.1-0.3-1.2-0.4-1.9-0.6
	c0.2-0.1,0.6-0.2,0.8-0.3c-3.2-0.1-2.7-1.4-5.1-1.5c0.3-0.3,0.1-0.3,0.4-0.5c-0.3,0-0.5,0.1-0.8,0.2c-1.6-1.1-4.6-1.6-6.2-2.7
	c-1.1,0.2-1.2-0.2-0.6-0.6c-1.7,0.2-0.8-0.3-1.3-0.3c-1,0.2-2.3-0.6-3.4-0.7c0.4-0.1,0.7-0.2,0.9-0.3c-2,0.2-0.7-0.6-2.4-0.3
	c0.2-0.1,0.5-0.2,0.8-0.3c-0.1-0.1-0.7,0-1.2,0.1c0.3-0.3-0.9,0.1,0.4-0.4c-0.9,0-0.7-0.4-2.1-0.3c0.3,0,0.6-0.1,0.7-0.2
	c-0.9,0-0.3-0.3-1.6-0.2c0.3,0,1-0.4,0.5-0.3c-0.6,0-0.6,0.3-1.2,0.3c0.5-0.5,0-0.6-1.3-0.6c0.7-0.4-0.9-0.2-1.4-0.4
	c-0.3-0.1,0.1-0.7-1.2-0.4c0.1-1-3.3-0.7-3.5-1.6c-0.2,0.1-0.3,0.2-0.6,0.3c-0.1-0.1,0.2-0.1,0.5-0.3c-2.1,0.2-2.3-0.8-4.4-0.9
	c0.2,0,0.4-0.1,0.5-0.2c-1.7,0-1.8-0.4-2.2-0.7c-1.8,0-3.4-0.3-2.3-1c-0.6,0.1-0.9,0.3-1.6,0.4c0.7-0.4-0.9-0.1-0.6-0.3
	c0.5-0.1,0.4,0,0.7-0.1c-0.5,0-0.4-0.1-1.3,0.1c-0.4-0.9-4.2-0.8-4.5-1.8c-0.5,0.1-1.1,0.2-1.3,0.3c22.4,7.2,44.6,14.4,58.6,24
	c0.6,0.3,1.8,0.7,1.5,1.1c1.2-0.1,0.9,0.3,2.1,0.3c-0.1,0.1-0.9,0.4-0.4,0.4c1.1-0.3,0.6,0.3,0.6,0.4c0,0.3,2,0.2,1.1,0.5
	c-0.3,0-0.7,0-0.7-0.2c-1.7,0.8,2.6,0.2,1,1c2.4-0.2,0.7,1.2,3,0.7c-0.4,0.2,0.2,0.1-0.4,0.4c1-0.2,1.6,0.1,0.2,0.5
	c0.6,0.2,2.4,0.1,2,0.7c-0.4,0.2-1.2,0.1-1.5,0.3c0.3,0,1,0,1.4-0.2c1.3,0.1,0.3,0.9,2.1,0.9c-0.9,0.2-0.4,0.4,0.6,0.1
	c-0.2,0.1-0.6,0.2-0.9,0.3c0.6,0,0,0.5,1.6,0.2c0,0.2,0.2,0.3,0.3,0.4c-1.7,0.7,1.7,0.8,0.5,1.7c2.5-0.1-0.2,1.2,2.8,1
	c-0.9,0.3,0.4,0.1-0.2,0.4c-1.4,0-1.3-0.5-2.4-0.6c-0.5,0.1-1,0.2-1.4,0.3c-0.1,0.1,0.1,0.2,1.1,0.1c-0.3,0.3-1.5,0.1-1.7,0.5
	c1-0.3,0.7,0.3,2-0.2c-0.5,0.4,1,0.2,0.3,0.4c0.9-0.3,1-0.2,2.1-0.4c-0.7,0.5,0.2,0.4,1,0.4c-0.2,0.2-0.8,0.2-1.1,0.3
	c0.7,0.1,1.3,0.5,0.5,0.8c0.1-0.2-0.9-0.2-1-0.4c-0.4,0.2-1.2,0.3-1.5,0.6c0.8-0.2,0.6,0,1.5-0.1c-1.6,0.3-1.4,1.2,0.2,1
	c-0.2,0.2-0.9,0.1-1.1,0.3c0.3,0,0.2,0,0.4,0c1-0.2,1.6-0.2,2.2-0.5c-0.2,0.2,0.1,0.2,0.3,0.3c0.8-0.2,0.1-0.3,0.9-0.5
	c-0.8,0.3,0.9,0.1,0,0.5c-1.1,0.2-1,0-1.9,0.2c-0.4,0.3,0.7,0.2,0.4,0.4c-0.7,0-1,0.3-1.6,0.4c-0.2-0.1-1.2-0.2-1.8,0.1
	c-0.1,0.1,1.4-0.1,1.2,0.1c-1.1,0.1-0.6,0.4-1.5,0.4c0,0.2,0.9,0.3,1.7-0.2c-1.4,0.2,0.3-0.1,0.6-0.3c-0.2,0-0.5,0-0.4,0
	c0.4,0,0.7-0.1,1.2-0.1c0.2,0.1-1,0.3-1.3,0.5c0.3,0,0.3,0.1,0.9,0c0.5-0.2-0.3-0.2,0.6-0.3c-0.1,0.3,1,0.4,0.4,0.8
	c-0.9-0.1-1.7-0.1-2.6-0.2c-0.2,0.1-0.4,0.1-0.6,0.2c0.6,0.2,1.9,0.3,2.2,0.5c-0.2,0.1-0.7,0.2-1,0.2c0.3,0,0.2,0,0.4,0
	c0.3,0,0.5-0.1,0.8-0.2c0.3,0.1,1,0.2-0.1,0.5c0.7,0.1,3.4,0,2,0.4c-0.2,0-1.3,0-2.7-0.1c0.1,0.3,1.9,0.2,1.2,0.6
	c0.5-0.3,1.5-0.2,2.1-0.4c-0.2,0.1,0.5,0,0,0.2c-0.6-0.1-1.7,0.1-2.4,0.4c1.5-0.1,0.8,0.1,0,0.4c2.2,0,1,0.5,2.2,0.8
	c-1.5,0.3-0.9-0.3-2.6,0c-0.3,0.3,1.9,0.2,0.1,0.8c1.1,0,1,0.3,1.2,0.5c0.6,0,1.1-0.1,1.7-0.1c-0.2,0.1-0.5,0.2-0.3,0.2
	c0.4-0.2,1-0.2,1.1-0.2c-0.9,0.3-1.4,0.2-2.1,0.2c0.3,0.2-0.8,0-1.2,0.3c1.1-0.1,1.7,0,0.5,0.2c-0.7-0.1-1.6,0-1.3-0.2
	c-0.2,0.1-0.4,0.1-0.6,0.1c-0.5,0.2,1,0.1-0.1,0.3c-0.8-0.1,0-0.5-1-0.6c-0.5,0.1-0.7,0.3-1.2,0.3c0.7-0.2-0.4-0.1,0.5-0.4
	c0.3,0,0.7,0,0.9-0.1c-0.1-0.1-1.2-0.3-1.9,0c0.7-0.2,0.1-0.2,0.8-0.4c1.2-0.1-0.4,0.3,0.8,0.2c0.5-0.3,0-0.3,1.4-0.7
	c-0.4,0-0.5,0-0.6,0c-0.8,0.2-0.2,0.1-0.7,0.3c-0.4,0-0.8,0.1-1.1,0.2c-0.9,0.1-0.4-0.2-1.3-0.1c-1,0.2,0.4,0.3-0.8,0.3
	c-0.1-0.2-0.5-0.5,0.1-0.7c-0.3,0.2,0.3,0.1,0.9,0.1c0.7-0.3-0.3-0.4-0.3-0.6c-0.2,0-0.4,0-0.6,0c-0.1,0-0.1,0-0.2,0.1
	c-0.7,0.1-0.9,0-1,0c-1.3,0.1-2.9,0.4-4.6,0.9c-0.5,1,3.7,0.9,3.2,1.9c2,0.3,3.9,0.7,5.7,1.2c0.4-0.2,0-0.2,0.8-0.3
	c0.8-0.1,0.3,0.3-0.4,0.3c0.1-0.1,0,0-0.3,0c1.6,0.4,3.1,0.9,4.5,1.4c0.2,0.1,0.5,0,1-0.1c2.2,1.3,7.1,1.8,10.2,3
	c-5.2-1-9.5-2.2-14.1-3.3c-0.4,0.1-1.3,0.2-0.8,0.3c0.3,0,0.6-0.1,0.9-0.1c-0.8,0.2-1.1,0.3,0,0.2c-0.9,0.4-0.2,0.6-0.1,0.9
	c3.2-0.2-1.1,0-1,0.3c-0.5,0-0.3-0.1-0.8-0.1c0.4-0.2,1.1-0.1,1.6-0.3c-1.3,0,0.4-0.3-0.8-0.3c0.2,0-0.3,0.4-1.4,0.4
	c0.8-0.2-0.6-0.4,1.2-0.8c-0.3-0.1-1.2,0,0-0.3c-0.6,0-1.7,0-1.5-0.2c1.7-0.1,1.8-0.1,2.7-0.1c-2.3-0.6-4.7-1.1-7.4-1.5
	c-1-0.5-4.5-1.7-7-2.3c-1.5-0.3-4,0.2-6.2,1.3c0.2,1,3.3,0.9,4.3,1.6c-0.7,0.4-1.3,0.9-2.9,1.2c-4.5-0.5-6.8-2.2-11.6-2.2
	c0-0.3-0.9-0.3-1.4-0.5c-0.4,0-0.8,0.1-1.3,0.2c0,0-0.1,0-0.1,0.1c-0.2,0-0.5,0.1-0.7,0.1c-0.2,0-0.3,0.1-0.5,0.1
	c-0.1,0-0.1,0.1-0.2,0.1c0.2,0.2,0.3,0.4,0.4,0.7c-1,0.1,0.1-0.2-0.5-0.2c-0.3,0.1-0.5,0.1-0.6,0.1c0.1,0,0.2,0.1,0.3,0.1
	c0.1,0,0.2,0,0.3,0c0,0-0.1,0.1-0.2,0.1c0.1,0.1,0.3,0.1,0.4,0.1c0.5-0.2,1.1-0.4,1.7-0.6c-0.3,0.2,0.5,0.1-0.1,0.3
	c-0.5,0.1-1,0-1.3,0.2c0.4,0,0.2,0.2,0,0.3c0.1,0.1,0.2,0.2,0.3,0.3c0.1,0,0.2,0,0.3,0c-0.1,0-0.2,0-0.2,0.1c0,0,0,0,0.1,0.1
	c0.1,0,0.2,0,0.3-0.1c-0.1,0-0.2,0.1-0.3,0.1c0.9,1,0.9,2.2,3.8,2.7c-0.6,0.5-1.2,1-1.8,1.5c1.3,0.2,2.7,0.7,4.7,0.9
	c0.5,0-0.3,0.2-0.4,0.4c3.7,0.7,7.4,1.3,8.7,2.5c-2.9-0.5-4.8-1.4-7.6-1.9c-0.6,0-1.4,0.2-2.1,0.3c-1.3-0.8-5-1.4-7.1-2.2
	c-1.2,0.2-3.1,0.8-2.1,1.1c-0.8,0.1-0.7,0-1-0.2c-0.4,0.1-0.5,0.2-0.5,0.3c-1.4-0.3-1.7-0.4-2.9-0.8c-0.4,0-1.5,0.3-1.8,0.5
	c1.4,0.2,1.4,0.8,2.4,1.1c0.6,0.2,1.7,0,2.4,0.1c0.3,0.1-0.2,0.2,0.1,0.3c0.2,0.1,1.3,0,1.6,0c0.3,0.1,0,0.3,0.3,0.4
	c0.9,0.5,3.7,0.3,4.8,0.8c0.8,0.3,0.1,1.2,1.6,1.3c-1.9,0.4-1.8-0.2-2.6-0.4c-2.7-0.7-7.3-0.8-9.3-1.5c-1.5,0.4-1.5,0.7-2.2,1.1
	c1,0.1,1.3,0.3,2.1,0.4c0.5,0,0.5-0.3,1.1-0.3c1.6,0.4,3.6,0.6,5.4,1.1c-0.7,0.4-0.3,0.5-1.8,0.9c0.3,0,0.1,0.2,0.2,0.2
	c0.4,0.2,0.3-0.1,1.1-0.3c-1.1,0.6,1.2,0.2,0.5,0.6c3.8,0,3.5,1.2,7.8,1.3c-3,0.1-5.4-0.5-7.8-1c-0.5-0.1-0.7,0.3-1.2,0.3
	c-0.7-0.2-0.3-0.6-0.8-0.7c-0.6-0.2-1.7,0-2.6-0.1c-1-0.1-1.4-0.5-2.5-0.5c-1.1-0.1-2.9,0.3-3-0.2c-0.9,0.2-1.4,0.4-2.3,0.4
	c-0.9,0.3-0.7,0.6-1.7,0.7c-0.8,0,0.7-0.3,0.4-0.4c-0.6-0.1-1.4,0.1-2.2,0.2c-0.3-0.6-1.7-0.7-3.2-0.9c-0.6,0-0.2,0.4-1.1,0.5
	c0.1-0.3-1.6-0.6-3-0.3c-0.6-0.6-2.3-0.4-3-1c-0.4-0.1-1.2,0.4-1.4,0.3c-1.7,0.1-1.6-0.3-2.6-0.5c-1.4,0.2-2.9,0.1-3.3-0.3
	c-1.2,0.4-0.5,0.5-0.2,0.7c-1.3,0.3-1-0.4-0.9-0.6c-3.5-0.4-8.4-0.1-11.8-0.8c-0.4-0.1-2,0.3-1.7-0.1c-0.2,0-0.6,0.1-0.5,0.2
	c-2.4-0.2-4.9-1.8-8.8-1.1c0-0.3,0.5-0.1,1.1-0.5c-1.8,0.2-1.7-0.5-3.6-0.1c-1.9-0.3-2.4-1.1-4.6-1.2c-3.5,1.1-6,1.6-9,2.3
	c-1.9,0.5-6.6,1.6-6.9,1.3c-4.3,1.3-6.4,1.3-8,1.4c-3.4,0.9-4.7,0.9-6.4,1c0.5-0.1,0.8-0.3,1.2-0.5c-1.4,0.4-1.5,0-3.4,0.8l1.6-0.9
	c-2.6,0.4-6,1.1-11.3,2.8c0.1-0.3-0.7-0.2-3.1,0.7c2.2-1.5,0.9-1.9-2-1.2c-0.5,0.3,1-0.2,0.3,0.1c-1.7,0.6-1.6,0.4-3.4,1.1
	c-0.2,0,0.3-0.3-1.3,0.2c1-0.5,1.3-0.8,0.8-0.7c-1,0.4-2.1,0.8-3.3,1.2c1.8-1.6,0.3-1.8-4.5-0.8c2-1-2,0.3-2,0.1
	c-3.5,1.4-3,0.4-6.5,2.1c3-2.2-6.9,0.3-6.8-0.5c-2.4,0.7-4.7,1-4.8,0.7c-4.1,1-5,0.7-5.9,0.4c-3.1,0.7-3.5,0.6-6.2,1.1
	c0.3-0.2,2.2-0.9,1.4-0.7c-2.8,1.1-3.6,0.9-4.4,0.9c0.6-0.2,1.2-0.3,1.7-0.5c-3.4,0.9-5.7,1-4.8,0.2c0.6-0.1,4.8-1.1,1.5,0.2
	c0.9-0.1,3.1-0.7,4.3-1c0.6-0.3,0.2-0.2,0.7-0.5c1.4-0.4,0.4,0.3,2.5-0.5c-0.9,0.1-1.1-0.3-4.1,0.8c2.7-1.7-5.1,0.6-3.7-0.7
	c-1.7,0.5-0.9,0-2.6,0.7c1.3-0.6,0.1-0.2,0.4-0.4c0.5-0.1,1-0.3,1.4-0.4c-2.3,0.6-1.1-0.1-3.2,0.4c-0.2,0.1,0.5,0.2-1.1,0.6
	c1.6-0.9-0.8,0-0.5-0.2c1.4-0.3,0.4-0.3,1.7-0.8c-1.6,0.3-1.5,0.1-3.4,0.6c-0.2,0.3-2.7,1.1-1.2,0.5l1.4-0.7
	c-1.9,0.2-3.3,0.3-5.5,0.6c1.2-0.3,0.7,0.1,2.2-0.6c-0.3-0.1-1.6,0.1-2.7,0.4c0.5-0.1,1-0.3,1.3-0.5c-1.7,0.5-0.6,0-1.4,0.2
	c-0.3,0.1-0.6,0.3-0.9,0.4c1.1-0.6-1.5,0.3-1.4,0.2c0.6-0.2,1.1-0.4,1.6-0.6c-0.8-0.2-0.9-0.6-3.5,0c0.5-0.3,1.8-0.9-0.7-0.1
	c0.4-0.3,1-0.4,1.5-0.7c-1.6,0.5-2.8,0.5-1.6-0.2l-1.5,0.4c1-1.9-5.4-0.9-6-2.2c-1.7,0.3-1.7,0-2-0.2l-1.5,0.4
	c0.8-0.6-0.3-0.5-1.5-0.2c2-0.8-0.4,0-1,0.1c0.6-1.1-4-0.3-4.3-1L95.7,88c-11.7-2.1-27.2-2.7-36.2-5.9c-1,0.4-1.6,0.4-1.3,0.2
	c0.8-0.2,0.5,0,1.1-0.3c0.8-0.5-1.3,0.3-1.7,0.3l1.2-0.6c-2.4,0-3-0.4-5.3-0.5c0.5-0.1,1.4-0.5,1-0.4l-1.5,0.4
	c-1.4-1.1-6-1.1-7.4-2.3c-1.9-0.1-3.6-0.2-3.1-1.1c-2,0.4,0.1-0.5-2.2,0c1.5-1-2.4-0.1-0.8-1c-3.8,0.3-2.1-1.3-5.7-1
	c0.4-0.2,0.8-0.4,1.2-0.6c-2.9,0.2-1.1-1.3-4.3-0.9c2.1-0.9-1.8,0,0.5-0.9l-1.6,0.4c1.5-0.7-0.1-0.4-0.5-0.6c-0.7-0.3,0.2-1.6-2.2-1
	c-0.3-0.5-1.1-0.9-1.9-1.2c-2.4,0.1-3.7-1.2-7.1,0.2c-1.1,0.8-2.2,1.3-2.7,1.3c-0.6,0-0.2-0.5-0.5-0.8c-0.5-0.3-2.1-0.9-3.5-0.7
	c-0.6,0.1-1.8,0.6-2.3,0.6c-1,0-0.5-1-1.6-1c-0.7,0-2.2,0.6-2.5,0.6C4,71.1,4.5,70,5.1,69.5c-0.2-0.1-0.6,0.1-0.7,0
	c0.7-1.2-1.4-1.8-3-2.1c-0.3,0-0.5-0.2-0.7-0.3c-1.4-0.9-0.4-2.7,0.3-4.3c0.5-0.3,0.6-0.5,0.9-0.7c0-0.6,0.6-1.3,0.7-1.9
	c1-0.6,0.6-0.9,2-1.6c0.9-0.8,1.4-1.4,2.3-2.2c0.7-0.7,1.3-1.4,2.2-2.1c0.7-0.5,1.6-1.1,2.5-1.7c-0.1,0-0.1,0-0.2,0
	c-0.3,0.2-0.2,0.2-0.5,0.4c-1.5,0.3,0.3-0.3,0.9-0.6c0.1,0,0.1-0.1,0.2-0.1c0,0-0.2,0-0.6,0.1c1.5-0.6-0.2-0.2,0.7-0.5
	c0.5-0.1,0.7-0.2,0.8-0.2c0.3-0.2,0.5-0.4,0.7-0.5c-0.2-0.1-0.6-0.2-1.7,0c0.6-0.2,1.2-0.3,1.8-0.5c-0.7,0.1,0.1-0.2-0.6-0.1
	c-0.6,0.2-1.2,0.4-1.8,0.5c0.9-0.4,0.9-0.5,0.7-0.6c-0.3,0.1-2.3,0.7-1.5,0.4c3.2-0.9,0.1-0.3,1.4-0.8c0.8-0.3,1.9-0.4,2.6-0.7
	c-2.3,0.5-0.8-0.1-1.6,0c-1.5,0.6-2.1,0.4-1.7,0.2c0.7-0.1,2-0.4,3.3-0.9c-0.4,0-2.4,0.6-1.7,0.3c3.7-1,2.2-1.2,2.1-1.4
	c-0.4,0.2-0.9,0.3-1.4,0.4c1.7-0.7-0.1,0-0.2-0.1l1.6-0.7c1.1-0.2,2-0.6,3-0.8c-0.6,0.4-1.2,0.6,0.5,0.3c-2.5,0.9-0.3,0.3-2.4,1.2
	c1.2-0.4,2.4-0.6,2.1-0.4c-0.7,0.2-1.3,0.3-1.9,0.5c0.7-0.2-1.9,0.7-0.5,0.4c1.4-0.4,2.6-0.8,4.1-1.1c-1.2,0.5-2.8,0.7-3.9,1.2
	c2.7-0.6-1.8,0.9,1.3,0.2c0.9-0.3,1.8-0.7,2.8-1c1.8-1,3.7-2.1,5.9-3.3c0.3-0.2,0.3-0.3,0.9-0.6c2.4-0.8,4.9-2.4,7.5-3.5
	c0.7-0.3,1.4-0.5,2.1-0.8c0.7-0.3,1.4-0.6,2-0.9c-0.7,0.1-1,0.1,0.2-0.3c0.1,0,0.4,0,0.8-0.1c0.4-0.2,0.8-0.4,1.2-0.6
	c-0.9,0.3-1.9,0.5-2.8,0.8c0.5-0.2-0.8,0.1,0.2-0.2c0.8-0.1,2.6-0.6,4.1-1.1c-2.4,0.5-1.1,0.1,0.4-0.5c-3.3,0.6-1-0.4-2.5-0.3
	c2.6-0.8,1.1,0.1,4-0.8c0.5-0.3-0.9-0.1-0.8-0.3c-0.2,0-0.4,0-0.5,0c-0.2,0-0.3-0.1-0.4-0.1c-1.3,0.3-1.2,0.1-0.2-0.2
	c0-0.1,0-0.2-0.1-0.3c-0.5,0.1-1,0.3-1.5,0.3c0.3-0.1,1-0.4,0.6-0.3c-0.8,0.3-1.7,0.6-1.8,0.5c1.3-0.5,1.9-0.6,2.8-0.7
	c0-0.3-0.1-0.5-0.7-0.6c-0.9-0.1-3,0.2-3.3,0.1c-0.9-0.3,0.3-1.3,1.3-1.7c-0.1-0.2-0.7,0-0.9-0.1c1.5-1.1-0.7-2.3-2.6-2.8
	c-0.3-0.1-0.6-0.3-0.7-0.4c-1.3-1.2,0.8-3.1,2.2-4.7c0.7-0.3,0.9-0.4,1.4-0.7c0.3-0.6,1.2-1.4,1.5-2c1.4-0.5,1.1-0.9,2.9-1.5
	c1.4-0.7,2.2-1.4,3.5-2.1c1.1-0.7,1.9-1.4,3.2-2.1c2.1-1.1,5.5-2,7.6-3.2c5.1-1.4,9.8-3.3,16-5.2c0.5-0.2,0.5-0.3,1.3-0.5
	c3.5-0.4,6.9-1.8,10.6-2.6c1-0.2,2-0.2,3.1-0.4c2.3-0.4,4.6-1,6.3-1.4c5.8,0.1,13.8-1.5,20.2-1.9c0.2,0,0.4,0.1,0.8,0.1
	c2.6-0.2,5,0,7.8-0.2C126.9-0.3,127.8,0.2,130.3,0.5z M140.6,91.6c0.4-0.1-0.2,0.2-0.5,0.3c1.4-0.4,2.4-0.8,3.5-1.3
	c-0.4,0-3.1,1-3.6,1c-0.6,0.3-1.5,0.6-2.2,0.9C137.7,92.7,139.8,91.8,140.6,91.6z M145.2,91.1c-0.3,0.2-0.7,0.4-1.2,0.5
	c0,0.1,0.6-0.1,1.5-0.4C146.1,90.9,146,90.8,145.2,91.1z M145.4,90.9c-1.9,0.6-1.7,0.5-3.4,1.1c-1.2,0.6,0.9-0.1,0.4,0.2
	C143.3,91.7,144.4,91.3,145.4,90.9z M141.8,91.4c0.1,0.1-0.1,0.2-1.3,0.8c3.7-1,1.1-0.8,3.8-1.5C145.1,90.2,142.7,91,141.8,91.4z
	 M278.5,83.8c0,0,0.1-0.1,0.4-0.2C278.2,83.4,277.1,84.1,278.5,83.8z M282.8,84.3c0.2-0.5-2.2-0.5-3.3-0.8c-1.3,0.4-0.7,0.4-2,0.8
	c0.2,0.5,1.6,0.1,2.1,0.7c1.1-0.3,1.3-0.1,1.7,0.1c1.8-0.6,2,0.2,3.9-0.5c-0.7-0.2-0.7-0.5-0.6-0.8C284,83.7,283,84.3,282.8,84.3z
	 M329.9,71.2c-0.4,0-1,0.1-0.8,0c-0.7,0.1-0.8,0.5,0.5,0.4C330.9,71.2,328.7,71.5,329.9,71.2z M332.7,53.6c-0.3,0.2-0.4,0.4,0.8,0.3
	C334,53.6,333.6,53.4,332.7,53.6z M319.7,51.2c0,0.1,0,0.2,0.8,0.1C320.9,51.1,320.3,51.1,319.7,51.2z M328.2,50.6
	c-0.7,0.3,0.5,0,0.9,0C329.8,50.3,328.7,50.4,328.2,50.6z M318.3,49.9c-0.7,0.3-0.1,0.3,0.6,0.1C319.3,49.8,318.7,49.8,318.3,49.9z
	 M318.5,48.5c-1.4,0.3-1.9,0.3-3.5,0.6c-0.3,0.1,0,0.1-0.3,0.3c0.7-0.1,1.1-0.3,1.9-0.4c-0.2,0.2-1,0.2-1.3,0.3
	c0.2,0.2,1.3,0.1,2.2,0.1C317.7,49,317.5,49.1,318.5,48.5z M315.4,48.1c-0.9,0.5-0.6,0.1-1.6,0.2c-1,0.4,0.2,0.2,0,0.4
	c0.3-0.1,0.4-0.2,0.7-0.2c0.3,0-0.1,0.2-0.3,0.3c1.3-0.3,0.9-0.1,1.8-0.3C316.3,48.4,316.3,48.1,315.4,48.1z M312.8,47.3
	c-0.5,0.3-0.4,0.3,0.4,0.2C313.1,47.4,313.6,47.2,312.8,47.3z M311,45.8c-1,0.3-0.2,0.4,0.5,0.4C311.9,45.9,311.4,45.8,311,45.8z
	 M305.7,43.8c-0.7,0.2-0.1,0.1-0.3,0.3C306.2,44,306.6,43.6,305.7,43.8z M287.5,35.8c-0.7,0.1-1.3,0.1-1.6,0.4
	c0.1,0.1,0.9,0,1.4-0.2C287.4,36,287.3,35.9,287.5,35.8z M282.3,34.6c-0.9,0.2,0.1,0.3,0.5,0.2C283.5,34.6,282.2,34.8,282.3,34.6z
	 M262.4,28.4c0.2-0.2-0.4-0.1-0.4-0.2C260.8,28.3,261.3,28.7,262.4,28.4z M265.8,28.8c-0.5,0.1-1.4,0.3-1.1,0.1
	c-1,0.2-0.2,0.3,0.3,0.3C265.3,29.1,265.6,29,265.8,28.8z M265,28.1c-0.7,0.1-2,0.6-1.8,0.3c-1.3,0.5,0,0.5,0.6,0.6
	c1-0.3,0.4-0.3-0.7-0.2C263.8,28.5,264.5,28.4,265,28.1z M146.5,7.4c-0.1,0.1-0.2,0.1-0.4,0.2c0,0,0,0,0,0c0.9,0,2.4-0.1,2.8,0
	l0.7-0.3C148.2,7.5,147.4,7.5,146.5,7.4z M199.5,8.8C199.1,9,199.2,9,199.8,9c0.2-0.1,0.4-0.2,0.7-0.2C200.4,8.7,200,8.7,199.5,8.8z
	 M87.9,77.8c-2.5,0.9,0.3,0.3,0.3,0.5C90.7,77.4,87.3,78.2,87.9,77.8z M61.6,73.2c0,0-0.1,0-0.1-0.1C61.2,73.2,61.1,73.3,61.6,73.2
	C61.5,73.2,61.5,73.2,61.6,73.2z M152.1,8.2c-0.8,0.1-1.6,0.1-2.2,0.4c1,0.1,2.4,0.2,3.6,0.1c0.3,0,0.5-0.1,0.8-0.2
	C153.1,8.4,152.9,8.2,152.1,8.2z M216.9,79c0.8-0.2,1.8-0.6,2.8-0.9c-0.1,0-0.2,0-0.3-0.1C218.5,78.4,217.6,78.7,216.9,79z
	 M217.6,77.7c-0.1,0-0.2,0-0.3-0.1l-0.8,0.4C216.9,77.9,217.3,77.8,217.6,77.7z M216.4,77.4c-0.7,0.2-1.4,0.3-2.4,0.5
	c0.1,0.2,1.5-0.1,2.1-0.1c0.3-0.1,0.5-0.2,0.7-0.3C216.7,77.5,216.6,77.5,216.4,77.4z M214.5,77c-1,0.2-2.1,0.4-3.1,0.8
	c-0.5,0.1-0.8,0.4-1.2,0.5c1.7-0.4,2-0.2,3-0.5c0.7-0.2,1.3-0.4,2-0.7C215,77.1,214.7,77.1,214.5,77z M222.5,79.3
	c0.3-0.1,0.7-0.3,1.1-0.4c-0.2,0-0.3-0.1-0.5-0.1C222,79.3,222.9,79.1,222.5,79.3z M62.3,73C62.3,73,62.3,73,62.3,73
	c0,0-0.1,0-0.1,0C62.2,73,62.3,73,62.3,73z M94.5,80.4c0.9-0.2,1.6-0.5,2.4-0.8C97.7,79.2,95.3,80,94.5,80.4z M42.1,34.8
	C42.1,34.8,42.1,34.8,42.1,34.8C42.1,34.8,42.1,34.8,42.1,34.8z M41,37.3c0.1,0,0.1,0,0.2-0.1c0.1,0,0.1-0.1,0.2-0.1
	C41.2,37.2,41.1,37.3,41,37.3z M16.8,48.7c0.8-0.2,1.3-0.2,1.6-0.2c0.5-0.3,0.9-0.5,1.4-0.8C18.6,48.1,18.6,48.1,16.8,48.7z
	 M53.8,72.9c0.1,0,0.2-0.1,0.4-0.1c0,0-0.1,0-0.1,0C54,72.8,53.9,72.8,53.8,72.9z M59.7,73.4c1.6-0.5,0.2-0.4-0.4-0.2
	C57.9,73.8,60.1,73.2,59.7,73.4z M78,77.5c1-0.3,1.7-0.6,2.8-0.9c-1.6,0.7,1.1-0.1,0.5,0.3c-0.8,0.2-0.5,0-1.1,0.3
	c0.6-0.1,0.5,0,2-0.4c-0.6,1.2,4.9,0.2,3.9,1.5c0.8-0.2,1.7-0.5,2.4-0.8c-4-0.9-8-1.9-12-2.9c-0.1,0-0.2,0.1-0.3,0.1
	c-1.2,0-2.2-0.4-3.6-0.3c-0.7,0-0.9-0.3-1.5-0.4c-1.3-0.1-3.1,0.3-3.6-0.3c-0.5,0.1-1,0.2-1.6,0.2c-0.1,0.2,0,0.3,1.3-0.1
	C65.7,75.1,71,74,70,75.2c0.4-0.2,0.8-0.4,1.3-0.5c0.1,0.1-0.4,0.2-1.2,0.6c3.3-0.7,2.1,0.7,5,0.3c-0.4,0.1-0.7,0.2-1,0.4
	c2.5-0.4,2,0.2,2.1,0.6C78.7,76.2,80.7,76.1,78,77.5z M79.7,78.1c1.8-0.5,1.7-0.9-0.3-0.2C78.8,78.3,79.9,78,79.7,78.1z M75.2,78.1
	c0.9-0.3,2.3-0.7,1.6-0.3c1.8-0.6,0.7-0.5-0.1-0.3C76.2,77.6,75.7,77.8,75.2,78.1z M75.3,79c1.1-0.3,3.6-1.3,2.9-0.8
	c2.5-0.9,0.8-0.8-0.1-0.7c-1.9,0.7-1,0.6,0.7,0.1C77.6,78.1,76.3,78.5,75.3,79z M89,79.2c0.7-0.1,1.2-0.3,1.8-0.5
	c0.9-0.5,0-0.3-1.1,0C89.3,79,90.2,78.7,89,79.2z M88.9,80.1c1.2-0.3,2.8-1,1.2-0.6C89.7,79.7,89.3,79.9,88.9,80.1z M92.5,80.5
	c0.7-0.2,1.4-0.5,2-0.7c0.8-0.2,0.1,0.2-0.9,0.4c-0.5,0.3,1.3-0.4,1.8-0.5c0.8-0.4,0.3-0.3,0.7-0.5c-1.2,0.2-2,0.7-3.2,0.9
	C91.9,80.6,93.1,80.3,92.5,80.5z M95.7,80.5c0.9-0.4,0.4-0.3-0.6,0C94.2,80.8,94.7,80.8,95.7,80.5z M99.1,80.2
	c0.4-0.3-1.7,0.2-0.6-0.3c-1.5,0.4-0.2,0.3-2.6,0.9c-0.4,0.2,0.8-0.1,0.1,0.3C96.9,80.8,98,80.5,99.1,80.2z M325.8,70
	c-0.1,0-0.1,0-0.2,0C325.6,70,325.6,70,325.8,70C325.7,70,325.7,70,325.8,70z M323.9,68.6l-0.9,0.1c0.2,0,0.3,0.1,0.4,0.1
	C323.6,68.8,323.8,68.7,323.9,68.6z M321.7,68.4c0.4,0.1,0.8,0.1,1.2,0.2C323.6,68.4,322.6,68.4,321.7,68.4z M320.8,67.9
	c-0.1,0-0.2,0.1-0.2,0.1c0,0.1,0.1,0.2,0.4,0.2C321.3,68.1,321.2,68,320.8,67.9z M319.3,66.5c-0.2,0-0.7,0.1-1.2,0.2
	c0.2,0.1,0.3,0.1,0.5,0.2c-0.1,0.2-0.1,0.3-0.1,0.3c0.1,0.1,0.3,0.1,0.8,0c-0.1,0.1-0.3,0.1-0.5,0.2c0.1,0,0.1,0.1,0.3,0.1
	c0.5,0.2,0.6,0.1,1.4,0.1c0.1,0,0.5,0.1,0.7,0.1c0.1-0.4-0.6-0.6-1.6-0.5c0.5-0.1,0.7-0.4,0.7-0.4C318.6,67.2,320,66.5,319.3,66.5z
	 M327.8,65.9c0,0-0.9,0.4,0.4,0.2C328.8,65.9,328,66,327.8,65.9z M314,64.5c-0.2-0.1,0-0.4-1.1-0.3c0,0.1,0.4,0.2-0.6,0.3
	c0.1-0.2-0.7-0.1,0.5-0.4c-1.4,0.3-0.8,0-1.4,0c-0.2,0.1-0.2,0.2-0.4,0.3c0.1,0,0.2,0.1,0.3,0.1c0,0,0.1,0,0.2,0.1
	c0.1,0,0.1,0,0.2,0c-0.1,0-0.1,0-0.1,0.1c1.7,0.8,4.3,1.2,6.2,1.9c0.5-0.1,1.1-0.2,1.4-0.4c-1.5,0.1,0.7-0.5-1.1-0.3
	c0.2,0.1-0.4,0.2-0.9,0.3c-0.1-0.2-0.9-0.4,0.5-0.5c-1,0-2.2-0.1-1.9-0.5l-1,0.1c0.2-0.3,1.1-0.1,1.4-0.3c-0.7-0.2-1.8,0-2.1-0.3
	c-0.6,0.3,0.4,0.1-0.2,0.3c0-0.2-1.6-0.2-0.7-0.5C313.2,64.6,313.7,64.7,314,64.5z M314.8,64.2c-1,0.2-0.2,0.3,0.5,0.3
	C315.8,64.2,315,64.3,314.8,64.2z M326.5,60.4c-0.1,0.2-0.4,0.4,0.6,0.3C327.7,60.4,327.3,60.2,326.5,60.4z M325.1,59.5
	c-0.8,0.4,0.2,0.3-0.1,0.5C325.9,59.8,325.7,59.5,325.1,59.5z M323.7,57.8c0,0.1-0.5,0.5,0.4,0.3C324.4,57.9,324.5,57.7,323.7,57.8z
	 M321.1,57.2c-0.2,0.2,0.3,0.3,1.1,0.1C322.1,57.2,322.1,57,321.1,57.2z M318.7,55.3c-0.5,0.3,0.3,0.2,0.3,0.3
	C319.1,55.7,320.1,55,318.7,55.3z M317,53.7c-0.1,0.2-0.4,0.7,0.9,0.4C317.3,54.1,317.9,53.7,317,53.7z M254.8,27
	c-1.3,0.4,0.9,0.2,0.6,0.4C256.8,26.9,255,27.1,254.8,27z M253.5,26.1c-0.4,0-0.7,0.1-1.1,0.2c-0.4,0.3,0.2,0.2,0.9,0.1
	C253.4,26.3,252.8,26.3,253.5,26.1z M252.9,25.4c-0.8,0-1.5,0.5-0.5,0.3L252.9,25.4z M249.5,24.5c-0.4,0.1-0.8,0.2-1.1,0.3
	c-0.5,0-0.2-0.1,0.4-0.2c0.2-0.2-0.8,0.2-1.1,0.2c-0.4,0.2,0,0.2-0.2,0.3c0.8,0,1.1-0.3,1.9-0.4C250,24.5,249.3,24.7,249.5,24.5z
	 M247.9,24.3c-0.6,0.1-0.9,0.2-1.5,0.3C246.2,24.9,247.5,24.5,247.9,24.3z M246.9,24.1c-0.4,0.2-0.1,0.2,0.6,0.1
	C247.9,24,247.6,24,246.9,24.1z M246.2,23.5c-0.5,0.2-1.2,0.3-1.9,0.4c-0.1,0.2,1.2,0,0.8,0.3c0.9-0.1,0-0.2,1.5-0.4
	C246.6,23.7,245.9,23.8,246.2,23.5z M203.1,9.2c-0.3,0,0.1-0.1,0.2-0.2c-0.9,0.1-1.5,0.3-2.1,0.5c0.3,0.1,1.9-0.3,2.3-0.3
	c0.3-0.2,0.9-0.2,1.3-0.4C204.8,8.7,203.5,9.1,203.1,9.2z M202.8,8.8c-2.4,0.3-0.5,0.5-2.3,0.6c-0.4,0.3,1.1-0.1,1.6-0.2
	C202.1,9.1,202.2,9.1,202.8,8.8z M201.5,8.5c-0.6,0.2-1.3,0.3-1.8,0.5c1.2-0.2,1.1-0.2,2.2-0.4C202.6,8.5,201.3,8.7,201.5,8.5z
	 M149.9,7.5c-0.5,0.1-0.8,0.2-1.2,0.3c1.1,0,1.7,0.1,2.8,0.1C151.4,7.7,150.4,7.7,149.9,7.5z M142.8,6c-0.6,0.3-1.1,0.5-1.4,0.8
	c0.8-0.1,1.4,0,1.4,0.1c-0.5,0-1,0-1.6,0c0,0-0.1,0.1-0.1,0.1c0,0,0,0,0,0c1,0,2.3-0.2,3-0.1c-0.2,0.1-0.4,0.1-0.6,0.2
	c1.3-0.1,2.7-0.3,3.4-0.3c0,0,0-0.1-0.1-0.1c0.8,0,1.7-0.1,2.3-0.3c-1.7,0.1-5.3,0.4-3.5-0.1c-0.4,0-0.8-0.1-1-0.1
	c-0.3,0.1-0.7,0.2-1.1,0.2c0.3-0.1,0.5-0.3,0.2-0.3C143.5,6.1,143.2,6,142.8,6z M145.1,4.9c-0.1,0-0.1,0-0.2,0
	c0,0.1,0.1,0.1,0.1,0.2c-0.1,0-0.2,0.1-0.3,0.1c0,0,0,0,0,0C145.5,5,144.9,5,145.1,4.9z M331.2,74.3c0.1,0.1-0.8,0.3,0.1,0.3
	C331.9,74.4,331.8,74.3,331.2,74.3z M331.9,73.3c0.4-0.2-0.3-0.1-0.7-0.2c-0.5,0.1-0.3,0.2-0.5,0.3
	C331.1,73.4,331.5,73.3,331.9,73.3z M346,66.7c-0.6,0.3-0.5,0.4,0.5,0.3l0.6-0.3C346.2,66.8,346.7,66.7,346,66.7z M346.2,66.5
	c-0.2-0.1,0.5-0.3,0.9-0.5c-0.8,0.1-1.4,0.3-2,0.5L346.2,66.5z M331.8,71.4c0.8-0.1,0.8-0.4-0.3-0.2
	C330.6,71.4,332.5,71.1,331.8,71.4z M343,64.1c0.1,0.1,0.5,0.2-0.1,0.4c1.1-0.2,0.8-0.1,1.6-0.1c-0.3,0.1-0.5,0.1-0.7,0.2
	c0.6,0,0.8,0.1,0.4,0.3c0.6,0,1.2,0,1.7-0.1c0-0.1-0.5-0.1,0-0.1c0.4-0.2-0.9,0-1.2,0c0.7-0.2,0.8-0.4,0.9-0.6
	C344,64.5,343.8,64.2,343,64.1z M331.8,70.6c-0.7,0.1-0.9,0.4,0.1,0.3l0.7-0.3C332.3,70.6,331.6,70.7,331.8,70.6z M324.4,71.5
	c0,0.1-0.1,0.3,1,0.1C325.6,71.5,325.2,71.4,324.4,71.5z M345.5,61.1c0.4-0.2-0.1-0.4-0.9-0.2C344.9,61,344.9,61.1,345.5,61.1z
	 M324.2,70.4c-0.1,0.2-0.3,0.3,0.4,0.3C324.6,70.5,325.5,70.2,324.2,70.4z M332.9,64.7c0.1-0.2-0.8,0-1.5,0c0,0.1,0,0.1-0.2,0.2
	C332.7,64.6,331.8,65,332.9,64.7z M336.4,60.1c-1.1,0.2,0.1,0.2,0.1,0.3C337.8,60.2,336.3,60.2,336.4,60.1z M332,61.2
	c-0.6,0.3,0.7,0-0.2,0.4c0.6-0.1,1.1-0.2,1.6-0.4C332.2,61.4,332.9,61,332,61.2z M339.7,56.6c0.2-0.2,0.4-0.4-0.5-0.4
	C339.4,56.4,339.2,56.6,339.7,56.6z M329.9,59.4c-1.1,0.2,0.4,0.1-0.3,0.3c0.7,0,1-0.2,1.5-0.3c0.2-0.2,0.3-0.3,0.3-0.4
	c-0.8,0.1-0.8,0.3-0.7,0.4C330.6,59.6,329.8,59.5,329.9,59.4z M330,58.6c-1.4,0.3-0.6,0.5-0.3,0.6C330.9,58.9,329.6,58.9,330,58.6z
	 M328.3,58.2c0.6-0.2,1.3-0.6,0.3-0.4C328,58,327.5,58.3,328.3,58.2z M295.6,74.1c1.2-0.2,0.8,0,1.3,0
	C297.6,73.9,296.5,73.8,295.6,74.1z M328.3,57c-1.2,0.1-0.4-0.4-1.7-0.4c0.7,0.2-1.3,0.9,1.4,0.5C328,57.1,328,57,328.3,57z
	 M326.5,56.6c0.8-0.1,0-0.1,0.5-0.3c-1,0.4-0.3-0.1-1.3,0.1c-0.9,0.3,1.1-0.1,0.2,0.2C326.3,56.5,326.6,56.5,326.5,56.6z
	 M326.2,56.1c-0.1-0.3,1.3-0.7,0.2-0.6c-0.3,0.3-1.3,0.3-1.6,0.6C326,55.8,325.3,56.2,326.2,56.1z M324.2,55.2
	c0.6-0.3-0.3-0.2-0.3-0.4c0.3-0.2,0.9-0.2,1.5-0.3c0.1-0.3-1.7,0.2-2-0.1c-0.7,0.3-0.3,0.2-0.8,0.5c0.9-0.1,0.1-0.1,0.8-0.3
	C323.8,54.7,323.1,55.2,324.2,55.2z M212.7,9.7c0.1-0.3-2,0-1.9-0.3C209.6,9.8,211.7,9.7,212.7,9.7z M210.2,9.5
	c0.4-0.2,0.1-0.3-0.8-0.1C209.4,9.5,209.7,9.5,210.2,9.5z M333,72.3c1.9-0.3,0.9,0.1,1.8,0.2c0.3-0.3-0.1-0.4-0.6-0.5
	C333.9,72.1,333.3,72.1,333,72.3z M342.3,59.5c1.8-0.3,0.6,0.5,2,0.4c-0.3-0.5-1.5-0.8-1.8-1.2c-0.9,0.1,0,0.2-0.5,0.3
	C342.6,59.1,342.9,59.2,342.3,59.5z M339.8,57.5c0,0,0.1,0,0.1,0C339.9,57.5,339.9,57.5,339.8,57.5z M340.3,57.6
	c-0.1,0-0.3-0.1-0.4-0.1C339.9,57.6,339.8,57.7,340.3,57.6z M345.6,65.4c0.4-0.2-0.8-0.1-1-0.2C344.7,65.3,344.5,65.4,345.6,65.4z
	 M330.7,60.9c0.5,0,0.8-0.1,1.1-0.2c0.1-0.1-0.5,0-0.9,0c0.2-0.1,0.5-0.1,0.7-0.3C330.7,60.6,330.9,60.7,330.7,60.9z M331.8,57.4
	l-1.3,0.2c0.8,0,1.6,0.2,1.4,0.5c1-0.2,1,0,1.6-0.2c0.7-0.3-0.6,0.1-1,0.1c-0.6,0,0.6-0.2,0.5-0.3C331.7,57.9,331.7,57.7,331.8,57.4
	z M335.6,54.1c0.4,0.2,0.7,0.4,1.1,0.6C337.3,54.5,336.4,54.2,335.6,54.1z M327.5,57.9c0.5,0,0.6-0.2,1-0.2c0.2-0.2-0.4-0.1-0.6-0.1
	C327.2,57.6,328.4,57.5,327.5,57.9z M322.6,54.5c0.7-0.2,1.4-0.2,2.2-0.6c-0.5,0-0.9,0-0.8-0.1c-0.6,0.1-0.1,0.2-0.3,0.3
	c-0.6,0.2-0.6,0-1.3,0.2C322,54.5,323.3,54.2,322.6,54.5z M322.2,53.2c0.4,0,0.6,0.2,1.3,0.2c0.3-0.3-1.3,0-0.4-0.5
	C322.2,53,322.7,53.1,322.2,53.2z M321.4,53.9c1.5-0.5-0.3-0.4,0.8-0.9c-1.1,0.2-0.7-0.1-0.2-0.4c-0.6-0.1-1.1,0.1-1.9,0.1
	c-0.1,0.1,0,0.2,0,0.3c0.5,0,0.6-0.2,1-0.2c0.2,0,0.1,0.1,0.4,0c-0.3,0.1-0.9,0.2-1,0.4c0.2,0,0.5,0,1-0.1c-0.2,0.1-0.6,0.2-0.8,0.3
	C321.4,53.4,321.6,53.6,321.4,53.9z M215.4,10c-0.2,0-0.4,0.1-0.6,0.1c-0.1,0.1-0.2,0.1-0.4,0.1c1.3,0,1.4,0.4,2.9,0.4
	c-0.1-0.2-0.7-0.2-0.6-0.5C215.5,10.5,215.6,10.2,215.4,10z"/>
<g>
</g>
<g>
</g>
<g>
</g>
<g>
</g>
<g>
</g>
<g>
</g>
</svg>
